Data on the Rocks: Touring U.S. Lighthouses
…
  # ---- Return results ----
  if (nrow(results) == 0) {
    message("No lighthouses found matching these criteria.")
    return(NULL)
  } else {
    return(results)
  }
}

# ---- Example Usage ----
# All lighthouses taller than 150 ft
search_lighthouses(lighthouses_clean, min_height = 150)

## # A tibble: 66 × 13
##    state        name  location coordinates year_first_lit automated current_lens
##    <chr>        <chr> <chr>    <chr>       <chr>          <chr>     <chr>       
##  1 Maine        Monh… Monhega… 43°45′53″N… 1824 (Former)… 1959      VRB-25      
##  2 Maine        Segu… Georget… 43°42′27″N… 1795 (Former)… 1985      First-order…
##  3 Massachuset… Cape… Rockpor… 42°38′12″N… 1861           1979(Sou… VRB-25      
##  4 Massachuset… Gay … Aquinnah 41°20′54″N… 1856[b]        1956      DCB-224     
##  5 Massachuset… High… Truro(N… 41°23′27″N… 1857[10]       1987[10]  LED         
##  6 Massachuset… Hosp… Beverly  42°32′54″N… 1927           Unknown   Unknown     
##  7 Massachuset… Sank… Nantuck… 41°17′04″N… 1850           1965      DCB-224     
##  8 New Hampshi… Nava… Navassa… 18°23′50.7… 1917           1929      None        
##  9 Rhode Island Bloc… New Sho… 41°09′35″N… 1875           1990      First-order…
## 10 Vermont      Nava… Navassa… 18°23′50.7… 1917           1929      None        
## # ℹ 56 more rows
## # ℹ 6 more variables: height_ft <dbl>, coords_clean <chr>, lat_raw <chr>,
## #   lon_raw <chr>, lat <dbl>, lon <dbl>

# Built before 1850 in Massachusetts
search_lighthouses(lighthouses_clean, state_search = "Massachusetts", max_year = 1849)

## # A tibble: 21 × 13
##    state        name  location coordinates year_first_lit automated current_lens
##    <chr>        <chr> <chr>    <chr>       <chr>          <chr>     <chr>       
##  1 Massachuset… Bake… Salem    42°32′11″N… 1821           1972      190mm       
##  2 Massachuset… Bird… Marion(… 41°40′10″N… 1819           1997(Rel… ML-300[5]   
##  3 Massachuset… Bost… Boston(… 42°19′41″N… 1783           1998      Second-orde…
##  4 Massachuset… Ned … Mattapo… 41°39′03″N… 1838           1923      250mm       
##  5 Massachuset… Old … Scituat… 42°12′17″N… 1811           1994(Rel… Replica lan…
##  6 Massachuset… Palm… New Bed… 41°37′37″N… 1849           1941      Fifth-order…
##  7 Massachuset… Plym… Plymouth 42°00′13″N… 1843[b]        1986      100mm       
##  8 Massachuset… Poin… Hyannis  41°36′35″N… 1816[23]       Never     None        
##  9 Massachuset… Bake… Salem    42°32′11″N… 1815           Never     <NA>        
## 10 Massachuset… Bost… Boston(… 42°19′41″N… 1716           Never     <NA>        
## # ℹ 11 more rows
## # ℹ 6 more variables: height_ft <dbl>, coords_clean <chr>, lat_raw <chr>,
## #   lon_raw <chr>, lat <dbl>, lon <dbl>

# Lighthouses with Fresnel lenses
search_lighthouses(lighthouses_clean, lens_search = "Fresnel")

## # A tibble: 77 × 13
##    state name         location coordinates year_first_lit automated current_lens
##    <chr> <chr>        <chr>    <chr>       <chr>          <chr>     <chr>       
##  1 Maine Baker Islan… Cranber… 44°14′17″N… 1828 (Former)… 1966      Fourth-orde…
##  2 Maine Bass Harbor… Tremont… 44°13′18″N… 1858           1974      Fourth-orde…
##  3 Maine Browns Head… Vinalha… 44°06′42″N… 1832 (Former)… 1987      Fifth-order…
##  4 Maine Cape Neddic… York(Ca… 43°09′55″N… 1879           1987      Fourth-orde…
##  5 Maine Doubling Po… Arrowsic 43°52′57″N… 1898           1988      Fifth-order…
##  6 Maine Eagle Islan… Eagle I… 44°13′03″N… 1838 (Former)… 1959      Fourth-orde…
##  7 Maine Fort Point … Stockto… 44°28′02″N… 1836 (Former)… 1988      Fourth-orde…
##  8 Maine Heron Neck … Vinalha… 44°01′30″N… 1854           1984      Fifth-order…
##  9 Maine Owls Head L… Owls He… 44°05′32″N… 1825           1989      Fourth-orde…
## 10 Maine Pemaquid Po… Bristol  43°50′12″N… 1827 (Former)… 1934      Fourth-orde…
## # ℹ 67 more rows
## # ℹ 6 more variables: height_ft <dbl>, coords_clean <chr>, lat_raw <chr>,
## #   lon_raw <chr>, lat <dbl>, lon <dbl>

# Specific partial name
search_lighthouses(lighthouses_clean, name_search = "Cape")

## # A tibble: 28 × 13
##    state        name  location coordinates year_first_lit automated current_lens
##    <chr>        <chr> <chr>    <chr>       <chr>          <chr>     <chr>       
##  1 Maine        Cape… Cape El… 43°33′58″N… 1828 (West to… 1963 (Ea… VRB-25      
##  2 Maine        Cape… York(Ca… 43°09′55″N… 1879           1987      Fourth-orde…
##  3 Massachuset… Cape… Rockpor… 42°38′12″N… 1861           1979(Sou… VRB-25      
##  4 Massachuset… Cape… Edgarto… 41°25′10″N… 1893[b]        1943      300mm       
##  5 New York     Cape… Cape Vi… 44°7′10″N … 1904           Never     None        
##  6 Delaware     Cape… Lewes(C… 38°47′25″N… 1825[8](First… Never     None        
##  7 Delaware     Cape… Lewes(C… 38°46′41″N… 1769           Never     None        
##  8 Washington   Cape… Cape Di… 46°16′33″N… 1856           1973      Fourth-orde…
##  9 Washington   Cape… Tatoosh… 48°23′31″N… 1857           1977      None        
## 10 Oregon       Cape… Coos Bay .mw-parser… 1866 (First) … 1966      None        
## # ℹ 18 more rows
## # ℹ 6 more variables: height_ft <dbl>, coords_clean <chr>, lat_raw <chr>,
## #   lon_raw <chr>, lat <dbl>, lon <dbl>
…
